Accessing ERDDAP data with R — CEFI Data Cookbook
…
?rerddap

To find information about a function in a specific package

?rerddap::ed_search

Direct ERDDAP server based search of datasets#

The rerddap::ed_search helps user search for data directly on a ERDDAP server. It give user an output of all dataset full names and the associated dataset_id which is important for the downloading. Here we demostrate the ed_search function with query of sea surface temperature (sst) dataset.

whichSST <- rerddap::ed_search(query = "sst")

whichSST

# A tibble: 980 × 2
   title                                                              dataset_id
   <chr>                                                              <chr>     
 1 COBE SST Analysis (sst.mon.ltm.1981-2010), 1.0°, 0001              noaa_psl_…
 2 COBE SST Analysis (sst.mon.ltm.1991-2020), 1.0°, 0001              noaa_psl_…
 3 COBE SST Analysis (sst.mon.mean), 1.0°, 1891-present               noaa_psl_…
 4 HadISST Average Sea Surface Temperature, 1°, Global, Monthly, 187… erdHadISST
 5 HadISST Average Sea Surface Temperature, 1°, Global, Monthly, 187… erdHadISS…
 6 HadISST Sea Ice Component, 1°, Global, Monthly, 1870-present       erdHadISS…
 7 HadISST Sea Ice Component, 1°, Global, Monthly, 1870-present, Lon… erdHadISS…
 8 NOAA ERSSTv4 (in situ only), 2°, Global, Monthly, 1854-2020        nceiErsst…
 9 NOAA ERSSTv4 (in situ only), 2°, Global, Monthly, 1854-2020, Lon+… nceiErsst…
10 NOAA ERSSTv5 (in situ only) (sst.mnmean), 2.0°, 1854-present       noaa_psl_…
# ℹ 970 more rows
…
